E2/basicTask/simulation/qsim/fre_div38.msim.vcd
$comment
	File created using the following command:
		vcd file fre_div38.msim.vcd -direction
$end
$date
	Tue Jun 03 00:42:38 2025
$end
$version
	ModelSim Version 10.1d
$end
$timescale
	1ps
$end
$scope module mux3_38_vlg_vec_tst $end
$var reg 1 ! clkclk__1hz_38 $end
$var reg 1 " clkclk__1khz_38 $end
$var reg 1 # clkclk__500hz_38 $end
$var reg 2 $ set38 [1:0] $end
$var wire 1 % bell38 $end
$var wire 1 & sampler $end
$scope module i1 $end
$var wire 1 ' gnd $end
$var wire 1 ( vcc $end
$var wire 1 ) unknown $end
$var tri1 1 * devclrn $end
$var tri1 1 + devpor $end
$var tri1 1 , devoe $end
$var wire 1 - bell38~output_o $end
$var wire 1 . set38[1]~input_o $end
$var wire 1 / clkclk__1khz_38~input_o $end
$var wire 1 0 set38[0]~input_o $end
$var wire 1 1 clkclk__1hz_38~input_o $end
$var wire 1 2 clkclk__500hz_38~input_o $end
$var wire 1 3 inst|sub|78~0_combout $end
$var wire 1 4 inst|sub|78~1_combout $end
$upscope $end
$upscope $end
$enddefinitions $end
#0
$dumpvars
0!
0"
0#
b0 $
0%
x&
0'
1(
x)
1*
1+
1,
0-
0.
0/
00
01
02
03
04
$end
#2500
1"
1/
0&
#5000
0"
0/
1&
#7500
1"
1/
0&
#10000
0"
0/
1&
#12500
1"
1/
0&
#15000
0"
0/
1&
#17500
1"
1/
0&
#20000
0"
0/
1&
#22500
1"
1/
0&
#25000
0"
0/
1&
#27500
1"
1/
0&
#30000
0"
0/
1&
#32500
1"
1/
0&
#35000
0"
0/
1&
#37500
1"
1/
0&
#40000
0"
0/
1&
#42500
1"
1/
0&
#45000
0"
0/
1&
#47500
1"
1/
0&
#50000
1#
0"
12
0/
1&
#52500
1"
1/
0&
#55000
0"
0/
1&
#57500
1"
1/
0&
#60000
0"
0/
1&
#62500
1"
1/
0&
#65000
0"
0/
1&
#67500
1"
1/
0&
#70000
0"
0/
1&
#72500
1"
1/
0&
#75000
0"
0/
1&
#77500
1"
1/
0&
#80000
0"
0/
1&
#82500
1"
1/
0&
#85000
0"
0/
1&
#87500
1"
1/
0&
#90000
0"
0/
1&
#92500
1"
1/
0&
#95000
0"
0/
1&
#97500
1"
1/
0&
#100000
1!
0#
0"
11
02
0/
1&
#102500
1"
1/
0&
#105000
0"
0/
1&
#107500
1"
1/
0&
#110000
0"
0/
1&
#112500
1"
1/
0&
#115000
0"
0/
1&
#117500
1"
1/
0&
#120000
0"
0/
1&
#122500
1"
1/
0&
#125000
0"
0/
1&
#127500
1"
1/
0&
#130000
0"
0/
1&
#132500
1"
1/
0&
#135000
0"
0/
1&
#137500
1"
1/
0&
#140000
0"
0/
1&
#142500
1"
1/
0&
#145000
0"
0/
1&
#147500
1"
1/
0&
#150000
1#
0"
12
0/
1&
#152500
1"
1/
0&
#155000
0"
0/
1&
#157500
1"
1/
0&
#160000
0"
0/
1&
#162500
1"
1/
0&
#165000
0"
0/
1&
#167500
1"
1/
0&
#170000
0"
0/
1&
#172500
1"
1/
0&
#175000
0"
0/
1&
#177500
1"
1/
0&
#180000
0"
0/
1&
#182500
1"
1/
0&
#185000
0"
0/
1&
#187500
1"
1/
0&
#190000
0"
0/
1&
#192500
1"
1/
0&
#195000
0"
0/
1&
#197500
1"
1/
0&
#200000
b1 $
0!
0#
0"
10
01
02
0/
1&
#202500
1"
1/
0&
14
1-
1%
#205000
0"
0/
1&
04
0-
0%
#207500
1"
1/
0&
14
1-
1%
#210000
0"
0/
1&
04
0-
0%
#212500
1"
1/
0&
14
1-
1%
#215000
0"
0/
1&
04
0-
0%
#217500
1"
1/
0&
14
1-
1%
#220000
0"
0/
1&
04
0-
0%
#222500
1"
1/
0&
14
1-
1%
#225000
0"
0/
1&
04
0-
0%
#227500
1"
1/
0&
14
1-
1%
#230000
0"
0/
1&
04
0-
0%
#232500
1"
1/
0&
14
1-
1%
#235000
0"
0/
1&
04
0-
0%
#237500
1"
1/
0&
14
1-
1%
#240000
0"
0/
1&
04
0-
0%
#242500
1"
1/
0&
14
1-
1%
#245000
0"
0/
1&
04
0-
0%
#247500
1"
1/
0&
14
1-
1%
#250000
1#
0"
12
0/
1&
04
0-
0%
#252500
1"
1/
0&
14
1-
1%
#255000
0"
0/
1&
04
0-
0%
#257500
1"
1/
0&
14
1-
1%
#260000
0"
0/
1&
04
0-
0%
#262500
1"
1/
0&
14
1-
1%
#265000
0"
0/
1&
04
0-
0%
#267500
1"
1/
0&
14
1-
1%
#270000
0"
0/
1&
04
0-
0%
#272500
1"
1/
0&
14
1-
1%
#275000
0"
0/
1&
04
0-
0%
#277500
1"
1/
0&
14
1-
1%
#280000
0"
0/
1&
04
0-
0%
#282500
1"
1/
0&
14
1-
1%
#285000
0"
0/
1&
04
0-
0%
#287500
1"
1/
0&
14
1-
1%
#290000
0"
0/
1&
04
0-
0%
#292500
1"
1/
0&
14
1-
1%
#295000
0"
0/
1&
04
0-
0%
#297500
1"
1/
0&
14
1-
1%
#300000
1!
0#
0"
11
02
0/
1&
04
0-
0%
#302500
1"
1/
0&
14
1-
1%
#305000
0"
0/
1&
04
0-
0%
#307500
1"
1/
0&
14
1-
1%
#310000
0"
0/
1&
04
0-
0%
#312500
1"
1/
0&
14
1-
1%
#315000
0"
0/
1&
04
0-
0%
#317500
1"
1/
0&
14
1-
1%
#320000
0"
0/
1&
04
0-
0%
#322500
1"
1/
0&
14
1-
1%
#325000
0"
0/
1&
04
0-
0%
#327500
1"
1/
0&
14
1-
1%
#330000
0"
0/
1&
04
0-
0%
#332500
1"
1/
0&
14
1-
1%
#335000
0"
0/
1&
04
0-
0%
#337500
1"
1/
0&
14
1-
1%
#340000
0"
0/
1&
04
0-
0%
#342500
1"
1/
0&
14
1-
1%
#345000
0"
0/
1&
04
0-
0%
#347500
1"
1/
0&
14
1-
1%
#350000
1#
0"
12
0/
1&
04
0-
0%
#352500
1"
1/
0&
14
1-
1%
#355000
0"
0/
1&
04
0-
0%
#357500
1"
1/
0&
14
1-
1%
#360000
0"
0/
1&
04
0-
0%
#362500
1"
1/
0&
14
1-
1%
#365000
0"
0/
1&
04
0-
0%
#367500
1"
1/
0&
14
1-
1%
#370000
0"
0/
1&
04
0-
0%
#372500
1"
1/
0&
14
1-
1%
#375000
0"
0/
1&
04
0-
0%
#377500
1"
1/
0&
14
1-
1%
#380000
0"
0/
1&
04
0-
0%
#382500
1"
1/
0&
14
1-
1%
#385000
0"
0/
1&
04
0-
0%
#387500
1"
1/
0&
14
1-
1%
#390000
0"
0/
1&
04
0-
0%
#392500
1"
1/
0&
14
1-
1%
#395000
0"
0/
1&
04
0-
0%
#397500
1"
1/
0&
14
1-
1%
#400000
b11 $
b10 $
0!
0#
0"
00
1.
01
02
0/
1&
04
0-
0%
#402500
1"
1/
0&
#405000
0"
0/
1&
#407500
1"
1/
0&
#410000
0"
0/
1&
#412500
1"
1/
0&
#415000
0"
0/
1&
#417500
1"
1/
0&
#420000
0"
0/
1&
#422500
1"
1/
0&
#425000
0"
0/
1&
#427500
1"
1/
0&
#430000
0"
0/
1&
#432500
1"
1/
0&
#435000
0"
0/
1&
#437500
1"
1/
0&
#440000
0"
0/
1&
#442500
1"
1/
0&
#445000
0"
0/
1&
#447500
1"
1/
0&
#450000
1#
0"
12
0/
1&
13
14
1-
1%
#452500
1"
1/
0&
#455000
0"
0/
1&
#457500
1"
1/
0&
#460000
0"
0/
1&
#462500
1"
1/
0&
#465000
0"
0/
1&
#467500
1"
1/
0&
#470000
0"
0/
1&
#472500
1"
1/
0&
#475000
0"
0/
1&
#477500
1"
1/
0&
#480000
0"
0/
1&
#482500
1"
1/
0&
#485000
0"
0/
1&
#487500
1"
1/
0&
#490000
0"
0/
1&
#492500
1"
1/
0&
#495000
0"
0/
1&
#497500
1"
1/
0&
#500000
1!
0#
0"
11
02
0/
1&
03
04
0-
0%
#502500
1"
1/
0&
#505000
0"
0/
1&
#507500
1"
1/
0&
#510000
0"
0/
1&
#512500
1"
1/
0&
#515000
0"
0/
1&
#517500
1"
1/
0&
#520000
0"
0/
1&
#522500
1"
1/
0&
#525000
0"
0/
1&
#527500
1"
1/
0&
#530000
0"
0/
1&
#532500
1"
1/
0&
#535000
0"
0/
1&
#537500
1"
1/
0&
#540000
0"
0/
1&
#542500
1"
1/
0&
#545000
0"
0/
1&
#547500
1"
1/
0&
#550000
1#
0"
12
0/
1&
13
14
1-
1%
#552500
1"
1/
0&
#555000
0"
0/
1&
#557500
1"
1/
0&
#560000
0"
0/
1&
#562500
1"
1/
0&
#565000
0"
0/
1&
#567500
1"
1/
0&
#570000
0"
0/
1&
#572500
1"
1/
0&
#575000
0"
0/
1&
#577500
1"
1/
0&
#580000
0"
0/
1&
#582500
1"
1/
0&
#585000
0"
0/
1&
#587500
1"
1/
0&
#590000
0"
0/
1&
#592500
1"
1/
0&
#595000
0"
0/
1&
#597500
1"
1/
0&
#600000
b11 $
0!
0#
0"
10
01
02
0/
1&
03
04
0-
0%
#602500
1"
1/
0&
#605000
0"
0/
1&
#607500
1"
1/
0&
#610000
0"
0/
1&
#612500
1"
1/
0&
#615000
0"
0/
1&
#617500
1"
1/
0&
#620000
0"
0/
1&
#622500
1"
1/
0&
#625000
0"
0/
1&
#627500
1"
1/
0&
#630000
0"
0/
1&
#632500
1"
1/
0&
#635000
0"
0/
1&
#637500
1"
1/
0&
#640000
0"
0/
1&
#642500
1"
1/
0&
#645000
0"
0/
1&
#647500
1"
1/
0&
#650000
1#
0"
12
0/
1&
#652500
1"
1/
0&
#655000
0"
0/
1&
#657500
1"
1/
0&
#660000
0"
0/
1&
#662500
1"
1/
0&
#665000
0"
0/
1&
#667500
1"
1/
0&
#670000
0"
0/
1&
#672500
1"
1/
0&
#675000
0"
0/
1&
#677500
1"
1/
0&
#680000
0"
0/
1&
#682500
1"
1/
0&
#685000
0"
0/
1&
#687500
1"
1/
0&
#690000
0"
0/
1&
#692500
1"
1/
0&
#695000
0"
0/
1&
#697500
1"
1/
0&
#700000
1!
0#
0"
11
02
0/
1&
#702500
1"
1/
0&
#705000
0"
0/
1&
#707500
1"
1/
0&
#710000
0"
0/
1&
#712500
1"
1/
0&
#715000
0"
0/
1&
#717500
1"
1/
0&
#720000
0"
0/
1&
#722500
1"
1/
0&
#725000
0"
0/
1&
#727500
1"
1/
0&
#730000
0"
0/
1&
#732500
1"
1/
0&
#735000
0"
0/
1&
#737500
1"
1/
0&
#740000
0"
0/
1&
#742500
1"
1/
0&
#745000
0"
0/
1&
#747500
1"
1/
0&
#750000
1#
0"
12
0/
1&
13
14
1-
1%
#752500
1"
1/
0&
#755000
0"
0/
1&
#757500
1"
1/
0&
#760000
0"
0/
1&
#762500
1"
1/
0&
#765000
0"
0/
1&
#767500
1"
1/
0&
#770000
0"
0/
1&
#772500
1"
1/
0&
#775000
0"
0/
1&
#777500
1"
1/
0&
#780000
0"
0/
1&
#782500
1"
1/
0&
#785000
0"
0/
1&
#787500
1"
1/
0&
#790000
0"
0/
1&
#792500
1"
1/
0&
#795000
0"
0/
1&
#797500
1"
1/
0&
#800000
b1 $
b0 $
0!
0#
0"
00
0.
01
02
0/
1&
03
04
0-
0%
#802500
1"
1/
0&
#805000
0"
0/
1&
#807500
1"
1/
0&
#810000
0"
0/
1&
#812500
1"
1/
0&
#815000
0"
0/
1&
#817500
1"
1/
0&
#820000
0"
0/
1&
#822500
1"
1/
0&
#825000
0"
0/
1&
#827500
1"
1/
0&
#830000
0"
0/
1&
#832500
1"
1/
0&
#835000
0"
0/
1&
#837500
1"
1/
0&
#840000
0"
0/
1&
#842500
1"
1/
0&
#845000
0"
0/
1&
#847500
1"
1/
0&
#850000
1#
0"
12
0/
1&
#852500
1"
1/
0&
#855000
0"
0/
1&
#857500
1"
1/
0&
#860000
0"
0/
1&
#862500
1"
1/
0&
#865000
0"
0/
1&
#867500
1"
1/
0&
#870000
0"
0/
1&
#872500
1"
1/
0&
#875000
0"
0/
1&
#877500
1"
1/
0&
#880000
0"
0/
1&
#882500
1"
1/
0&
#885000
0"
0/
1&
#887500
1"
1/
0&
#890000
0"
0/
1&
#892500
1"
1/
0&
#895000
0"
0/
1&
#897500
1"
1/
0&
