E2/basicTask/simulation/qsim/fre_div38.msim.vcd
$comment
	File created using the following command:
		vcd file fre_div38.msim.vcd -direction
$end
$date
	Tue May 20 15:20:39 2025
$end
$version
	ModelSim Version 10.1d
$end
$timescale
	1ps
$end
$scope module m100_38_vlg_vec_tst $end
$var reg 1 ! clk38 $end
$var wire 1 " clkout38 $end
$var wire 1 # sampler $end
$scope module i1 $end
$var wire 1 $ gnd $end
$var wire 1 % vcc $end
$var wire 1 & unknown $end
$var tri1 1 ' devclrn $end
$var tri1 1 ( devpor $end
$var tri1 1 ) devoe $end
$var wire 1 * clkout38~output_o $end
$var wire 1 + clk38~input_o $end
$var wire 1 , inst|7~0_combout $end
$var wire 1 - inst|7~q $end
$var wire 1 . inst|20~combout $end
$var wire 1 / inst|6~0_combout $end
$var wire 1 0 inst|6~q $end
$var wire 1 1 inst|5~0_combout $end
$var wire 1 2 inst|5~q $end
$var wire 1 3 inst|3~0_combout $end
$var wire 1 4 inst|3~q $end
$var wire 1 5 inst|34~0_combout $end
$var wire 1 6 inst|34~q $end
$var wire 1 7 inst|29~combout $end
$var wire 1 8 inst|33~0_combout $end
$var wire 1 9 inst|33~q $end
$var wire 1 : inst|32~0_combout $end
$var wire 1 ; inst|32~q $end
$var wire 1 < inst|31~0_combout $end
$var wire 1 = inst|31~q $end
$upscope $end
$upscope $end
$enddefinitions $end
#0
$dumpvars
0!
x"
x#
0$
1%
x&
1'
1(
1)
x*
0+
1,
0-
x.
1/
00
11
02
x3
04
15
06
x7
18
09
1:
0;
x<
0=
$end
#555
17
#688
03
#713
1.
#1692
0<
#5400
0*
0"
#10000
1!
0#
#11000
1+
#20000
0!
1#
#21038
0+
#23688
1-
#24170
0,
#24311
0.
#30000
1!
0#
#31000
1+
#40000
0!
1#
#41038
0+
#43688
0-
#44150
1,
#44401
1.
#45788
10
#46270
0/
#50000
1!
0#
#51000
1+
#60000
0!
1#
#61038
0+
#63688
1-
#64170
0,
#64311
0.
#70000
1!
0#
#71000
1+
#80000
0!
1#
#81038
0+
#83688
0-
#84150
1,
#84401
1.
#85788
00
#86250
1/
#87155
12
#87637
01
#90000
1!
0#
#91000
1+
#100000
0!
1#
#101038
0+
#103688
1-
#104170
0,
#104311
0.
#110000
1!
0#
#111000
1+
#120000
0!
1#
#121038
0+
#123688
0-
#124150
1,
#124401
1.
#125788
10
#126270
0/
#126838
13
#130000
1!
0#
#131000
1+
#140000
0!
1#
#141038
0+
#143688
1-
#144170
0,
#144311
0.
#150000
1!
0#
#151000
1+
#160000
0!
1#
#161038
0+
#163688
0-
#164150
1,
#164401
1.
#165055
14
#165537
03
#165788
00
#166250
1/
#167155
02
#167617
11
#170000
1!
0#
#171000
1+
#180000
0!
1#
#181038
0+
#183688
1-
#184170
0,
#190000
1!
0#
#191000
1+
#200000
0!
1#
#201038
0+
#203688
0-
#204150
1,
#205055
04
#207127
16
#207588
07
#207609
05
#210000
1!
0#
#211000
1+
#220000
0!
1#
#221038
0+
#223688
1-
#224170
0,
#224311
0.
#230000
1!
0#
#231000
1+
#240000
0!
1#
#241038
0+
#243688
0-
#244150
1,
#244401
1.
#245788
10
#246270
0/
#250000
1!
0#
#251000
1+
#260000
0!
1#
#261038
0+
#263688
1-
#264170
0,
#264311
0.
#270000
1!
0#
#271000
1+
#280000
0!
1#
#281038
0+
#283688
0-
#284150
1,
#284401
1.
#285788
00
#286250
1/
#287155
12
#287637
01
#290000
1!
0#
#291000
1+
#300000
0!
1#
#301038
0+
#303688
1-
#304170
0,
#304311
0.
#310000
1!
0#
#311000
1+
#320000
0!
1#
#321038
0+
#323688
0-
#324150
1,
#324401
1.
#325788
10
#326270
0/
#326838
13
#330000
1!
0#
#331000
1+
#340000
0!
1#
#341038
0+
#343688
1-
#344170
0,
#344311
0.
#350000
1!
0#
#351000
1+
#360000
0!
1#
#361038
0+
#363688
0-
#364150
1,
#364401
1.
#365055
14
#365537
03
#365788
00
#366250
1/
#367155
02
#367617
11
#370000
1!
0#
#371000
1+
#380000
0!
1#
#381038
0+
#383688
1-
#384170
0,
#390000
1!
0#
#391000
1+
#400000
0!
1#
#401038
0+
#403688
0-
#404150
1,
#405055
04
#407127
06
#407589
15
#407682
17
#409962
19
#410000
1!
0#
#410444
08
#411000
1+
#420000
0!
1#
#421038
0+
#423688
1-
#424170
0,
#424311
0.
#430000
1!
0#
#431000
1+
#440000
0!
1#
#441038
0+
#443688
0-
#444150
1,
#444401
1.
#445788
10
#446270
0/
#450000
1!
0#
#451000
1+
#460000
0!
1#
#461038
0+
#463688
1-
#464170
0,
#464311
0.
#470000
1!
0#
#471000
1+
#480000
0!
1#
#481038
0+
#483688
0-
#484150
1,
#484401
1.
#485788
00
#486250
1/
#487155
12
#487637
01
#490000
1!
0#
#491000
1+
#500000
0!
1#
#501038
0+
#503688
1-
#504170
0,
#504311
0.
#510000
1!
0#
#511000
1+
#520000
0!
1#
#521038
0+
#523688
0-
#524150
1,
#524401
1.
#525788
10
#526270
0/
#526838
13
#530000
1!
0#
#531000
1+
#540000
0!
1#
#541038
0+
#543688
1-
#544170
0,
#544311
0.
#550000
1!
0#
#551000
1+
#560000
0!
1#
#561038
0+
#563688
0-
#564150
1,
#564401
1.
#565055
14
#565537
03
#565788
00
#566250
1/
#567155
02
#567617
11
#570000
1!
0#
#571000
1+
#580000
0!
1#
#581038
0+
#583688
1-
#584170
0,
#590000
1!
0#
#591000
1+
#600000
0!
1#
#601038
0+
#603688
0-
#604150
1,
#605055
04
#607127
16
#607588
07
#607609
05
#610000
1!
0#
#611000
1+
#620000
0!
1#
#621038
0+
#623688
1-
#624170
0,
#624311
0.
#630000
1!
0#
#631000
1+
#640000
0!
1#
#641038
0+
#643688
0-
#644150
1,
#644401
1.
#645788
10
#646270
0/
#650000
1!
0#
#651000
1+
#660000
0!
1#
#661038
0+
#663688
1-
#664170
0,
#664311
0.
#670000
1!
0#
#671000
1+
#680000
0!
1#
#681038
0+
#683688
0-
#684150
1,
#684401
1.
#685788
00
#686250
1/
#687155
12
#687637
01
#690000
1!
0#
#691000
1+
#700000
0!
1#
#701038
0+
#703688
1-
#704170
0,
#704311
0.
#710000
1!
0#
#711000
1+
#720000
0!
1#
#721038
0+
#723688
0-
#724150
1,
#724401
1.
#725788
10
#726270
0/
#726838
13
#730000
1!
0#
#731000
1+
#740000
0!
1#
#741038
0+
#743688
1-
#744170
0,
#744311
0.
#750000
1!
0#
#751000
1+
#760000
0!
1#
#761038
0+
#763688
0-
#764150
1,
#764401
1.
#765055
14
#765537
03
#765788
00
#766250
1/
#767155
02
#767617
11
#770000
1!
0#
#771000
1+
#780000
0!
1#
#781038
0+
#783688
1-
#784170
0,
#790000
1!
0#
#791000
1+
#800000
0!
1#
#801038
0+
#803688
0-
#804150
1,
#805055
04
#807127
06
#807589
15
#807682
17
#809962
09
#810000
1!
0#
#810424
18
#811000
1+
#811289
1;
#811771
0:
#820000
0!
1#
#821038
0+
#823688
1-
#824170
0,
#824311
0.
#830000
1!
0#
#831000
1+
#840000
0!
1#
#841038
0+
#843688
0-
#844150
1,
#844401
1.
#845788
10
#846270
0/
#850000
1!
0#
#851000
1+
#860000
0!
1#
#861038
0+
#863688
1-
#864170
0,
#864311
0.
#870000
1!
0#
#871000
1+
#880000
0!
1#
#881038
0+
#883688
0-
#884150
1,
#884401
1.
#885788
00
#886250
1/
#887155
12
#887637
01
#890000
1!
0#
#891000
1+
#900000
0!
1#
#901038
0+
#903688
1-
#904170
0,
#904311
0.
#910000
1!
0#
#911000
1+
#920000
0!
1#
#921038
0+
#923688
0-
#924150
1,
#924401
1.
#925788
10
#926270
0/
#926838
13
#930000
1!
0#
#931000
1+
#940000
0!
1#
#941038
0+
#943688
1-
#944170
0,
#944311
0.
#950000
1!
0#
#951000
1+
#960000
0!
1#
#961038
0+
#963688
0-
#964150
1,
#964401
1.
#965055
14
#965537
03
#965788
00
#966250
1/
#967155
02
#967617
11
#970000
1!
0#
#971000
1+
#980000
0!
1#
#981038
0+
#983688
1-
#984170
0,
#990000
1!
0#
#991000
1+
#1000000
0!
1#
#1001038
0+
#1003688
0-
#1004150
1,
#1005055
04
#1007127
16
#1007588
07
#1007609
05
#1010000
1!
0#
#1011000
1+
#1020000
0!
1#
#1021038
0+
#1023688
1-
#1024170
0,
#1024311
0.
#1030000
1!
0#
#1031000
1+
#1040000
0!
1#
#1041038
0+
#1043688
0-
#1044150
1,
#1044401
1.
#1045788
10
#1046270
0/
#1050000
1!
0#
#1051000
1+
#1060000
0!
1#
#1061038
0+
#1063688
1-
#1064170
0,
#1064311
0.
#1070000
1!
0#
#1071000
1+
#1080000
0!
1#
#1081038
0+
#1083688
0-
#1084150
1,
#1084401
1.
#1085788
00
#1086250
1/
#1087155
12
#1087637
01
#1090000
1!
0#
#1091000
1+
#1100000
0!
1#
#1101038
0+
#1103688
1-
#1104170
0,
#1104311
0.
#1110000
1!
0#
#1111000
1+
#1120000
0!
1#
#1121038
0+
#1123688
0-
#1124150
1,
#1124401
1.
#1125788
10
#1126270
0/
#1126838
13
#1130000
1!
0#
#1131000
1+
#1140000
0!
1#
#1141038
0+
#1143688
1-
#1144170
0,
#1144311
0.
#1150000
1!
0#
#1151000
1+
#1160000
0!
1#
#1161038
0+
#1163688
0-
#1164150
1,
#1164401
1.
#1165055
14
#1165537
03
#1165788
00
#1166250
1/
#1167155
02
#1167617
11
#1170000
1!
0#
#1171000
1+
#1180000
0!
1#
#1181038
0+
#1183688
1-
#1184170
0,
#1190000
1!
0#
#1191000
1+
#1200000
0!
1#
#1201038
0+
#1203688
0-
#1204150
1,
#1205055
04
#1207127
06
#1207589
15
#1207682
17
#1209962
19
#1210000
1!
0#
#1210444
08
#1211000
1+
#1211739
1<
#1220000
0!
1#
#1221038
0+
#1223688
1-
#1224170
0,
#1224311
0.
#1230000
1!
0#
#1231000
1+
#1240000
0!
1#
#1241038
0+
#1243688
0-
#1244150
1,
#1244401
1.
#1245788
10
#1246270
0/
#1250000
1!
0#
#1251000
1+
#1260000
0!
1#
#1261038
0+
#1263688
1-
#1264170
0,
#1264311
0.
#1270000
1!
0#
#1271000
1+
#1280000
0!
1#
#1281038
0+
#1283688
0-
#1284150
1,
#1284401
1.
#1285788
00
#1286250
1/
#1287155
12
#1287637
01
#1290000
1!
0#
#1291000
1+
#1300000
0!
1#
#1301038
0+
#1303688
1-
#1304170
0,
#1304311
0.
#1310000
1!
0#
#1311000
1+
#1320000
0!
1#
#1321038
0+
#1323688
0-
#1324150
1,
#1324401
1.
#1325788
10
#1326270
0/
#1326838
13
#1330000
1!
0#
#1331000
1+
#1340000
0!
1#
#1341038
0+
#1343688
1-
#1344170
0,
#1344311
0.
#1350000
1!
0#
#1351000
1+
#1360000
0!
1#
#1361038
0+
#1363688
0-
#1364150
1,
#1364401
1.
#1365055
14
#1365537
03
#1365788
00
#1366250
1/
#1367155
02
#1367617
11
#1370000
1!
0#
#1371000
1+
#1380000
0!
1#
#1381038
0+
#1383688
1-
#1384170
0,
#1390000
1!
0#
#1391000
1+
#1400000
0!
1#
#1401038
0+
#1403688
0-
#1404150
1,
#1405055
04
#1407127
16
#1407588
07
#1407609
05
#1410000
1!
0#
#1411000
1+
#1420000
0!
1#
#1421038
0+
#1423688
1-
#1424170
0,
#1424311
0.
#1430000
1!
0#
#1431000
1+
#1440000
0!
1#
#1441038
0+
#1443688
0-
#1444150
1,
#1444401
1.
#1445788
10
#1446270
0/
#1450000
1!
0#
#1451000
1+
#1460000
0!
1#
#1461038
0+
#1463688
1-
#1464170
0,
#1464311
0.
#1470000
1!
0#
#1471000
1+
#1480000
0!
1#
#1481038
0+
#1483688
0-
#1484150
1,
#1484401
1.
#1485788
00
#1486250
1/
#1487155
12
#1487637
01
#1490000
1!
0#
#1491000
1+
#1500000
0!
1#
#1501038
0+
#1503688
1-
#1504170
0,
#1504311
0.
#1510000
1!
0#
#1511000
1+
#1520000
0!
1#
#1521038
0+
#1523688
0-
#1524150
1,
#1524401
1.
#1525788
10
#1526270
0/
#1526838
13
#1530000
1!
0#
#1531000
1+
#1540000
0!
1#
#1541038
0+
#1543688
1-
#1544170
0,
#1544311
0.
#1550000
1!
0#
#1551000
1+
#1560000
0!
1#
#1561038
0+
#1563688
0-
#1564150
1,
#1564401
1.
#1565055
14
#1565537
03
#1565788
00
#1566250
1/
#1567155
02
#1567617
11
#1570000
1!
0#
#1571000
1+
#1580000
0!
1#
#1581038
0+
#1583688
1-
#1584170
0,
#1590000
1!
0#
#1591000
1+
#1600000
0!
1#
#1601038
0+
#1603688
0-
#1604150
1,
#1605055
04
#1607127
06
#1607589
15
#1607682
17
#1608481
1=
#1608963
0<
#1609962
09
#1610000
1!
0#
#1610424
18
#1611000
1+
#1611289
0;
#1611751
1:
#1614031
1*
1"
#1620000
0!
1#
#1621038
0+
#1623688
1-
#1624170
0,
#1624311
0.
#1630000
1!
0#
#1631000
1+
#1640000
0!
1#
#1641038
0+
#1643688
0-
#1644150
1,
#1644401
1.
#1645788
10
#1646270
0/
#1650000
1!
0#
#1651000
1+
#1660000
0!
1#
#1661038
0+
#1663688
1-
#1664170
0,
#1664311
0.
#1670000
1!
0#
#1671000
1+
#1680000
0!
1#
#1681038
0+
#1683688
0-
#1684150
1,
#1684401
1.
#1685788
00
#1686250
1/
#1687155
12
#1687637
01
#1690000
1!
0#
#1691000
1+
#1700000
0!
1#
#1701038
0+
#1703688
1-
#1704170
0,
#1704311
0.
#1710000
1!
0#
#1711000
1+
#1720000
0!
1#
#1721038
0+
#1723688
0-
#1724150
1,
#1724401
1.
#1725788
10
#1726270
0/
#1726838
13
#1730000
1!
0#
#1731000
1+
#1740000
0!
1#
#1741038
0+
#1743688
1-
#1744170
0,
#1744311
0.
#1750000
1!
0#
#1751000
1+
#1760000
0!
1#
#1761038
0+
#1763688
0-
#1764150
1,
#1764401
1.
#1765055
14
#1765537
03
#1765788
00
#1766250
1/
#1767155
02
#1767617
11
#1770000
1!
0#
#1771000
1+
#1780000
0!
1#
#1781038
0+
#1783688
1-
#1784170
0,
#1790000
1!
0#
#1791000
1+
#1800000
0!
1#
#1801038
0+
#1803688
0-
#1804150
1,
#1805055
04
#1807127
16
#1807609
05
#1810000
1!
0#
#1811000
1+
#1820000
0!
1#
#1821038
0+
#1823688
1-
#1824170
0,
#1824311
0.
#1830000
1!
0#
#1831000
1+
#1840000
0!
1#
#1841038
0+
#1843688
0-
#1844150
1,
#1844401
1.
#1845788
10
#1846270
0/
#1850000
1!
0#
#1851000
1+
#1860000
0!
1#
#1861038
0+
#1863688
1-
#1864170
0,
#1864311
0.
#1870000
1!
0#
#1871000
1+
#1880000
0!
1#
#1881038
0+
#1883688
0-
#1884150
1,
#1884401
1.
#1885788
00
#1886250
1/
#1887155
12
#1887637
01
#1890000
1!
0#
#1891000
1+
#1900000
0!
1#
#1901038
0+
#1903688
1-
#1904170
0,
#1904311
0.
#1910000
1!
0#
#1911000
1+
#1920000
0!
1#
#1921038
0+
#1923688
0-
#1924150
1,
#1924401
1.
#1925788
10
#1926270
0/
#1926838
13
#1930000
1!
0#
#1931000
1+
#1940000
0!
1#
#1941038
0+
#1943688
1-
#1944170
0,
#1944311
0.
#1950000
1!
0#
#1951000
1+
#1960000
0!
1#
#1961038
0+
#1963688
0-
#1964150
1,
#1964401
1.
#1965055
14
#1965537
03
#1965788
00
#1966250
1/
#1967155
02
#1967617
11
#1970000
1!
0#
#1971000
1+
#1980000
0!
1#
#1981038
0+
#1983688
1-
#1984170
0,
#1990000
1!
0#
#1991000
1+
#2000000
0!
1#
#2001038
0+
#2003688
0-
#2004150
1,
#2005055
04
#2007127
06
#2007589
15
#2008481
0=
#2010000
1!
0#
#2011000
1+
#2013881
0*
0"
#2020000
0!
1#
#2021038
0+
#2023688
1-
#2024170
0,
#2024311
0.
#2030000
1!
0#
#2031000
1+
#2040000
0!
1#
#2041038
0+
#2043688
0-
#2044150
1,
#2044401
1.
#2045788
10
#2046270
0/
#2050000
1!
0#
#2051000
1+
#2060000
0!
1#
#2061038
0+
#2063688
1-
#2064170
0,
#2064311
0.
#2070000
1!
0#
#2071000
1+
#2080000
0!
1#
#2081038
0+
#2083688
0-
#2084150
1,
#2084401
1.
#2085788
00
#2086250
1/
#2087155
12
#2087637
01
#2090000
1!
0#
#2091000
1+
#2100000
0!
1#
#2101038
0+
#2103688
1-
#2104170
0,
#2104311
0.
#2110000
1!
0#
#2111000
1+
#2120000
0!
1#
#2121038
0+
#2123688
0-
#2124150
1,
#2124401
1.
#2125788
10
#2126270
0/
#2126838
13
#2130000
1!
0#
#2131000
1+
#2140000
0!
1#
#2141038
0+
#2143688
1-
#2144170
0,
#2144311
0.
#2150000
1!
0#
#2151000
1+
#2160000
0!
1#
#2161038
0+
#2163688
0-
#2164150
1,
#2164401
1.
#2165055
14
#2165537
03
#2165788
00
#2166250
1/
#2167155
02
#2167617
11
#2170000
1!
0#
#2171000
1+
#2180000
0!
1#
#2181038
0+
#2183688
1-
#2184170
0,
#2190000
1!
0#
#2191000
1+
#2200000
0!
1#
#2201038
0+
#2203688
0-
#2204150
1,
#2205055
04
#2207127
16
#2207588
07
#2207609
05
#2210000
1!
0#
#2211000
1+
#2220000
0!
1#
#2221038
0+
#2223688
1-
#2224170
0,
#2224311
0.
#2230000
1!
0#
#2231000
1+
#2240000
0!
1#
#2241038
0+
#2243688
0-
#2244150
1,
#2244401
1.
#2245788
10
#2246270
0/
#2250000
1!
0#
#2251000
1+
#2260000
0!
1#
#2261038
0+
#2263688
1-
#2264170
0,
#2264311
0.
#2270000
1!
0#
#2271000
1+
#2280000
0!
1#
#2281038
0+
#2283688
0-
#2284150
1,
#2284401
1.
#2285788
00
#2286250
1/
#2287155
12
#2287637
01
#2290000
1!
0#
#2291000
1+
#2300000
0!
1#
#2301038
0+
#2303688
1-
#2304170
0,
#2304311
0.
#2310000
1!
0#
#2311000
1+
#2320000
0!
1#
#2321038
0+
#2323688
0-
#2324150
1,
#2324401
1.
#2325788
10
#2326270
0/
#2326838
13
#2330000
1!
0#
#2331000
1+
#2340000
0!
1#
#2341038
0+
#2343688
1-
#2344170
0,
#2344311
0.
#2350000
1!
0#
#2351000
1+
#2360000
0!
1#
#2361038
0+
#2363688
0-
#2364150
1,
#2364401
1.
#2365055
14
#2365537
03
#2365788
00
#2366250
1/
#2367155
02
#2367617
11
#2370000
1!
0#
#2371000
1+
#2380000
0!
1#
#2381038
0+
#2383688
1-
#2384170
0,
#2390000
1!
0#
#2391000
1+
#2400000
0!
1#
#2401038
0+
#2403688
0-
#2404150
1,
#2405055
04
#2407127
06
#2407589
15
#2407682
17
#2409962
19
#2410000
1!
0#
#2410444
08
#2411000
1+
#2420000
0!
1#
#2421038
0+
#2423688
1-
#2424170
0,
#2424311
0.
#2430000
1!
0#
#2431000
1+
#2440000
0!
1#
#2441038
0+
#2443688
0-
#2444150
1,
#2444401
1.
#2445788
10
#2446270
0/
#2450000
1!
0#
#2451000
1+
#2460000
0!
1#
#2461038
0+
#2463688
1-
#2464170
0,
#2464311
0.
#2470000
1!
0#
#2471000
1+
#2480000
0!
1#
#2481038
0+
#2483688
0-
#2484150
1,
#2484401
1.
#2485788
00
#2486250
1/
#2487155
12
#2487637
01
#2490000
1!
0#
#2491000
1+
#2500000
0!
1#
#2501038
0+
#2503688
1-
#2504170
0,
#2504311
0.
#2510000
1!
0#
#2511000
1+
#2520000
0!
1#
#2521038
0+
#2523688
0-
#2524150
1,
#2524401
1.
#2525788
10
#2526270
0/
#2526838
13
#2530000
1!
0#
#2531000
1+
#2540000
0!
1#
#2541038
0+
#2543688
1-
#2544170
0,
#2544311
0.
#2550000
1!
0#
#2551000
1+
#2560000
0!
1#
#2561038
0+
#2563688
0-
#2564150
1,
#2564401
1.
#2565055
14
#2565537
03
#2565788
00
#2566250
1/
#2567155
02
#2567617
11
#2570000
1!
0#
#2571000
1+
#2580000
0!
1#
#2581038
0+
#2583688
1-
#2584170
0,
#2590000
1!
0#
#2591000
1+
#2600000
0!
1#
#2601038
0+
#2603688
0-
#2604150
1,
#2605055
04
#2607127
16
#2607588
07
#2607609
05
#2610000
1!
0#
#2611000
1+
#2620000
0!
1#
#2621038
0+
#2623688
1-
#2624170
0,
#2624311
0.
#2630000
1!
0#
#2631000
1+
#2640000
0!
1#
#2641038
0+
#2643688
0-
#2644150
1,
#2644401
1.
#2645788
10
#2646270
0/
#2650000
1!
0#
#2651000
1+
#2660000
0!
1#
#2661038
0+
#2663688
1-
#2664170
0,
#2664311
0.
#2670000
1!
0#
#2671000
1+
#2680000
0!
1#
#2681038
0+
#2683688
0-
#2684150
1,
#2684401
1.
#2685788
00
#2686250
1/
#2687155
12
#2687637
01
#2690000
1!
0#
#2691000
1+
#2700000
0!
1#
#2701038
0+
#2703688
1-
#2704170
0,
#2704311
0.
#2710000
1!
0#
#2711000
1+
#2720000
0!
1#
#2721038
0+
#2723688
0-
#2724150
1,
#2724401
1.
#2725788
10
#2726270
0/
#2726838
13
#2730000
1!
0#
#2731000
1+
#2740000
0!
1#
#2741038
0+
#2743688
1-
#2744170
0,
#2744311
0.
#2750000
1!
0#
#2751000
1+
#2760000
0!
1#
#2761038
0+
#2763688
0-
#2764150
1,
#2764401
1.
#2765055
14
#2765537
03
#2765788
00
#2766250
1/
#2767155
02
#2767617
11
#2770000
1!
0#
#2771000
1+
#2780000
0!
1#
#2781038
0+
#2783688
1-
#2784170
0,
#2790000
1!
0#
#2791000
1+
#2800000
0!
1#
#2801038
0+
#2803688
0-
#2804150
1,
#2805055
04
#2807127
06
#2807589
15
#2807682
17
#2809962
09
#2810000
1!
0#
#2810424
18
#2811000
1+
#2811289
1;
#2811771
0:
#2820000
0!
1#
#2821038
0+
#2823688
1-
#2824170
0,
#2824311
0.
#2830000
1!
0#
#2831000
1+
#2840000
0!
1#
#2841038
0+
#2843688
0-
#2844150
1,
#2844401
1.
#2845788
10
#2846270
0/
#2850000
1!
0#
#2851000
1+
#2860000
0!
1#
#2861038
0+
#2863688
1-
#2864170
0,
#2864311
0.
#2870000
1!
0#
#2871000
1+
#2880000
0!
1#
#2881038
0+
#2883688
0-
#2884150
1,
#2884401
1.
#2885788
00
#2886250
1/
#2887155
12
#2887637
01
#2890000
1!
0#
#2891000
1+
#2900000
0!
1#
#2901038
0+
#2903688
1-
#2904170
0,
#2904311
0.
#2910000
1!
0#
#2911000
1+
#2920000
0!
1#
#2921038
0+
#2923688
0-
#2924150
1,
#2924401
1.
#2925788
10
#2926270
0/
#2926838
13
#2930000
1!
0#
#2931000
1+
#2940000
0!
1#
#2941038
0+
#2943688
1-
#2944170
0,
#2944311
0.
#2950000
1!
0#
#2951000
1+
#2960000
0!
1#
#2961038
0+
#2963688
0-
#2964150
1,
#2964401
1.
#2965055
14
#2965537
03
#2965788
00
#2966250
1/
#2967155
02
#2967617
11
#2970000
1!
0#
#2971000
1+
#2980000
0!
1#
#2981038
0+
#2983688
1-
#2984170
0,
#2990000
1!
0#
#2991000
1+
#3000000
0!
1#
#3001038
0+
#3003688
0-
#3004150
1,
#3005055
04
#3007127
16
#3007588
07
#3007609
05
#3010000
1!
0#
#3011000
1+
#3020000
0!
1#
#3021038
0+
#3023688
1-
#3024170
0,
#3024311
0.
#3030000
1!
0#
#3031000
1+
#3040000
0!
1#
#3041038
0+
#3043688
0-
#3044150
1,
#3044401
1.
#3045788
10
#3046270
0/
#3050000
1!
0#
#3051000
1+
#3060000
0!
1#
#3061038
0+
#3063688
1-
#3064170
0,
#3064311
0.
#3070000
1!
0#
#3071000
1+
#3080000
0!
1#
#3081038
0+
#3083688
0-
#3084150
1,
#3084401
1.
#3085788
00
#3086250
1/
#3087155
12
#3087637
01
#3090000
1!
0#
#3091000
1+
#3100000
0!
1#
#3101038
0+
#3103688
1-
#3104170
0,
#3104311
0.
#3110000
1!
0#
#3111000
1+
#3120000
0!
1#
#3121038
0+
#3123688
0-
#3124150
1,
#3124401
1.
#3125788
10
#3126270
0/
#3126838
13
#3130000
1!
0#
#3131000
1+
#3140000
0!
1#
#3141038
0+
#3143688
1-
#3144170
0,
#3144311
0.
#3150000
1!
0#
#3151000
1+
#3160000
0!
1#
#3161038
0+
#3163688
0-
#3164150
1,
#3164401
1.
#3165055
14
#3165537
03
#3165788
00
#3166250
1/
#3167155
02
#3167617
11
#3170000
1!
0#
#3171000
1+
#3180000
0!
1#
#3181038
0+
#3183688
1-
#3184170
0,
#3190000
1!
0#
#3191000
1+
#3200000
0!
1#
#3201038
0+
#3203688
0-
#3204150
1,
#3205055
04
#3207127
06
#3207589
15
#3207682
17
#3209962
19
#3210000
1!
0#
#3210444
08
#3211000
1+
#3211739
1<
#3220000
0!
1#
#3221038
0+
#3223688
1-
#3224170
0,
#3224311
0.
#3230000
1!
0#
#3231000
1+
#3240000
0!
1#
#3241038
0+
#3243688
0-
#3244150
1,
#3244401
1.
#3245788
10
#3246270
0/
#3250000
1!
0#
#3251000
1+
#3260000
0!
1#
#3261038
0+
#3263688
1-
#3264170
0,
#3264311
0.
#3270000
1!
0#
#3271000
1+
#3280000
0!
1#
#3281038
0+
#3283688
0-
#3284150
1,
#3284401
1.
#3285788
00
#3286250
1/
#3287155
12
#3287637
01
#3290000
1!
0#
#3291000
1+
#3300000
0!
1#
#3301038
0+
#3303688
1-
#3304170
0,
#3304311
0.
#3310000
1!
0#
#3311000
1+
#3320000
0!
1#
#3321038
0+
#3323688
0-
#3324150
1,
#3324401
1.
#3325788
10
#3326270
0/
#3326838
13
#3330000
1!
0#
#3331000
1+
#3340000
0!
1#
#3341038
0+
#3343688
1-
#3344170
0,
#3344311
0.
#3350000
1!
0#
#3351000
1+
#3360000
0!
1#
#3361038
0+
#3363688
0-
#3364150
1,
#3364401
1.
#3365055
14
#3365537
03
#3365788
00
#3366250
1/
#3367155
02
#3367617
11
#3370000
1!
0#
#3371000
1+
#3380000
0!
1#
#3381038
0+
#3383688
1-
#3384170
0,
#3390000
1!
0#
#3391000
1+
#3400000
0!
1#
#3401038
0+
#3403688
0-
#3404150
1,
#3405055
04
#3407127
16
#3407588
07
#3407609
05
#3410000
1!
0#
#3411000
1+
#3420000
0!
1#
#3421038
0+
#3423688
1-
#3424170
0,
#3424311
0.
#3430000
1!
0#
#3431000
1+
#3440000
0!
1#
#3441038
0+
#3443688
0-
#3444150
1,
#3444401
1.
#3445788
10
#3446270
0/
#3450000
1!
0#
#3451000
1+
#3460000
0!
1#
#3461038
0+
#3463688
1-
#3464170
0,
#3464311
0.
#3470000
1!
0#
#3471000
1+
#3480000
0!
1#
#3481038
0+
#3483688
0-
#3484150
1,
#3484401
1.
#3485788
00
#3486250
1/
#3487155
12
#3487637
01
#3490000
1!
0#
#3491000
1+
#3500000
0!
1#
#3501038
0+
#3503688
1-
#3504170
0,
#3504311
0.
#3510000
1!
0#
#3511000
1+
#3520000
0!
1#
#3521038
0+
#3523688
0-
#3524150
1,
#3524401
1.
#3525788
10
#3526270
0/
#3526838
13
#3530000
1!
0#
#3531000
1+
#3540000
0!
1#
#3541038
0+
#3543688
1-
#3544170
0,
#3544311
0.
#3550000
1!
0#
#3551000
1+
#3560000
0!
1#
#3561038
0+
#3563688
0-
#3564150
1,
#3564401
1.
#3565055
14
#3565537
03
#3565788
00
#3566250
1/
#3567155
02
#3567617
11
#3570000
1!
0#
#3571000
1+
#3580000
0!
1#
#3581038
0+
#3583688
1-
#3584170
0,
#3590000
1!
0#
#3591000
1+
#3600000
0!
1#
#3601038
0+
#3603688
0-
#3604150
1,
#3605055
04
#3607127
06
#3607589
15
#3607682
17
#3608481
1=
#3608963
0<
#3609962
09
#3610000
1!
0#
#3610424
18
#3611000
1+
#3611289
0;
#3611751
1:
#3614031
1*
1"
#3620000
0!
1#
#3621038
0+
#3623688
1-
#3624170
0,
#3624311
0.
#3630000
1!
0#
#3631000
1+
#3640000
0!
1#
#3641038
0+
#3643688
0-
#3644150
1,
#3644401
1.
#3645788
10
#3646270
0/
#3650000
1!
0#
#3651000
1+
#3660000
0!
1#
#3661038
0+
#3663688
1-
#3664170
0,
#3664311
0.
#3670000
1!
0#
#3671000
1+
#3680000
0!
1#
#3681038
0+
#3683688
0-
#3684150
1,
#3684401
1.
#3685788
00
#3686250
1/
#3687155
12
#3687637
01
#3690000
1!
0#
#3691000
1+
#3700000
0!
1#
#3701038
0+
#3703688
1-
#3704170
0,
#3704311
0.
#3710000
1!
0#
#3711000
1+
#3720000
0!
1#
#3721038
0+
#3723688
0-
#3724150
1,
#3724401
1.
#3725788
10
#3726270
0/
#3726838
13
#3730000
1!
0#
#3731000
1+
#3740000
0!
1#
#3741038
0+
#3743688
1-
#3744170
0,
#3744311
0.
#3750000
1!
0#
#3751000
1+
#3760000
0!
1#
#3761038
0+
#3763688
0-
#3764150
1,
#3764401
1.
#3765055
14
#3765537
03
#3765788
00
#3766250
1/
#3767155
02
#3767617
11
#3770000
1!
0#
#3771000
1+
#3780000
0!
1#
#3781038
0+
#3783688
1-
#3784170
0,
#3790000
1!
0#
#3791000
1+
#3800000
0!
1#
#3801038
0+
#3803688
0-
#3804150
1,
#3805055
04
#3807127
16
#3807609
05
#3810000
1!
0#
#3811000
1+
#3820000
0!
1#
#3821038
0+
#3823688
1-
#3824170
0,
#3824311
0.
#3830000
1!
0#
#3831000
1+
#3840000
0!
1#
#3841038
0+
#3843688
0-
#3844150
1,
#3844401
1.
#3845788
10
#3846270
0/
#3850000
1!
0#
#3851000
1+
#3860000
0!
1#
#3861038
0+
#3863688
1-
#3864170
0,
#3864311
0.
#3870000
1!
0#
#3871000
1+
#3880000
0!
1#
#3881038
0+
#3883688
0-
#3884150
1,
#3884401
1.
#3885788
00
#3886250
1/
#3887155
12
