E1/basicTask/lab1_mistake/lab1_mistake14/simulation/qsim/cnt10.msim.vcd
$comment
	File created using the following command:
		vcd file cnt10.msim.vcd -direction
$end
$date
	Thu Nov 14 09:02:25 2019
$end
$version
	ModelSim Version 10.1d
$end
$timescale
	1ps
$end
$scope module cnt10_vlg_vec_tst $end
$var reg 1 ! clk $end
$var wire 1 " q [3] $end
$var wire 1 # q [2] $end
$var wire 1 $ q [1] $end
$var wire 1 % q [0] $end
$var wire 1 & sampler $end
$scope module i1 $end
$var wire 1 ' gnd $end
$var wire 1 ( vcc $end
$var wire 1 ) unknown $end
$var tri1 1 * devclrn $end
$var tri1 1 + devpor $end
$var tri1 1 , devoe $end
$var wire 1 - q[3]~output_o $end
$var wire 1 . q[2]~output_o $end
$var wire 1 / q[1]~output_o $end
$var wire 1 0 q[0]~output_o $end
$var wire 1 1 clk~input_o $end
$var wire 1 2 inst2|7~0_combout $end
$var wire 1 3 inst2|7~feeder_combout $end
$var wire 1 4 inst2|7~q $end
$var wire 1 5 inst2|20~combout $end
$var wire 1 6 inst2|6~0_combout $end
$var wire 1 7 inst2|6~q $end
$var wire 1 8 inst2|5~0_combout $end
$var wire 1 9 inst2|5~q $end
$var wire 1 : inst2|3~0_combout $end
$var wire 1 ; inst2|3~feeder_combout $end
$var wire 1 < inst2|3~q $end
$upscope $end
$upscope $end
$enddefinitions $end
#0
$dumpvars
0!
x%
x$
x#
x"
x&
0'
1(
x)
1*
1+
1,
x-
x.
x/
x0
01
x2
x3
04
x5
x6
07
18
09
x:
x;
0<
$end
#458
15
#554
0:
#569
16
#876
0;
#1229
x7
#1311
12
#1722
x6
#2454
13
#2491
0.
0#
#2520
0-
0"
#2526
00
0%
#25000
1!
0&
#25666
11
#50000
0!
1&
#50830
01
#52337
14
#52716
05
#53598
02
#54772
03
#54854
10
1%
#75000
1!
0&
#75666
11
#100000
0!
1&
#100830
01
#102337
04
#102795
15
#103648
12
#104791
13
#104863
00
0%
#125000
1!
0&
#125666
11
#150000
0!
1&
#150830
01
#152337
14
#152716
05
#153598
02
#154772
03
#154854
10
1%
#175000
1!
0&
#175666
11
#200000
0!
1&
#200830
01
#202337
04
#202795
15
#203648
12
#204791
13
#204863
00
0%
#225000
1!
0&
#225666
11
#250000
0!
1&
#250830
01
#252337
14
#252716
05
#253598
02
#254772
03
#254854
10
1%
#275000
1!
0&
#275666
11
#300000
0!
1&
#300830
01
#302337
04
#302795
15
#303648
12
#304791
13
#304863
00
0%
#325000
1!
0&
#325666
11
#350000
0!
1&
#350830
01
#352337
14
#352716
05
#353598
02
#354772
03
#354854
10
1%
#375000
1!
0&
#375666
11
#400000
0!
1&
#400830
01
#402337
04
#402795
15
#403648
12
#404791
13
#404863
00
0%
#425000
1!
0&
#425666
11
#450000
0!
1&
#450830
01
#452337
14
#452716
05
#453598
02
#454772
03
#454854
10
1%
#475000
1!
0&
#475666
11
#500000
0!
1&
#500830
01
#502337
04
#502795
15
#503648
12
#504791
13
#504863
00
0%
#525000
1!
0&
#525666
11
#550000
0!
1&
#550830
01
#552337
14
#552716
05
#553598
02
#554772
03
#554854
10
1%
#575000
1!
0&
#575666
11
#600000
0!
1&
#600830
01
#602337
04
#602795
15
#603648
12
#604791
13
#604863
00
0%
#625000
1!
0&
#625666
11
#650000
0!
1&
#650830
01
#652337
14
#652716
05
#653598
02
#654772
03
#654854
10
1%
#675000
1!
0&
#675666
11
#700000
0!
1&
#700830
01
#702337
04
#702795
15
#703648
12
#704791
13
#704863
00
0%
#725000
1!
0&
#725666
11
#750000
0!
1&
#750830
01
#752337
14
#752716
05
#753598
02
#754772
03
#754854
10
1%
#775000
1!
0&
#775666
11
#800000
0!
1&
#800830
01
#802337
04
#802795
15
#803648
12
#804791
13
#804863
00
0%
#825000
1!
0&
#825666
11
#850000
0!
1&
#850830
01
#852337
14
#852716
05
#853598
02
#854772
03
#854854
10
1%
#875000
1!
0&
#875666
11
#900000
0!
1&
#900830
01
#902337
04
#902795
15
#903648
12
#904791
13
#904863
00
0%
#925000
1!
0&
#925666
11
#950000
0!
1&
#950830
01
#952337
14
#952716
05
#953598
02
#954772
03
#954854
10
1%
#975000
1!
0&
#975666
11
