E1/basicTask/lab1_mistake/lab1_mistake12/simulation/qsim/cnt10.msim.vcd
$comment
	File created using the following command:
		vcd file cnt10.msim.vcd -direction
$end
$date
	Mon Nov 11 12:50:29 2019
$end
$version
	ModelSim Version 10.1d
$end
$timescale
	1ps
$end
$scope module cnt10_vlg_vec_tst $end
$var reg 1 ! clk $end
$var wire 1 " q [3] $end
$var wire 1 # q [2] $end
$var wire 1 $ q [1] $end
$var wire 1 % q [0] $end
$var wire 1 & sampler $end
$scope module i1 $end
$var wire 1 ' gnd $end
$var wire 1 ( vcc $end
$var wire 1 ) unknown $end
$var tri1 1 * devclrn $end
$var tri1 1 + devpor $end
$var tri1 1 , devoe $end
$var wire 1 - q[3]~output_o $end
$var wire 1 . q[2]~output_o $end
$var wire 1 / q[1]~output_o $end
$var wire 1 0 q[0]~output_o $end
$var wire 1 1 clk~input_o $end
$var wire 1 2 inst|7~0_combout $end
$var wire 1 3 inst|7~feeder_combout $end
$var wire 1 4 inst|7~q $end
$var wire 1 5 inst|20~combout $end
$var wire 1 6 inst|6~0_combout $end
$var wire 1 7 inst|6~q $end
$var wire 1 8 inst|5~0_combout $end
$var wire 1 9 inst|5~q $end
$var wire 1 : inst|3~0_combout $end
$var wire 1 ; inst|3~q $end
$upscope $end
$upscope $end
$enddefinitions $end
#0
$dumpvars
0!
x%
x$
0#
x"
x&
0'
1(
x)
1*
1+
1,
x-
0.
x/
x0
01
x2
x3
04
x5
x6
07
18
09
x:
0;
$end
#524
0:
#739
16
#932
15
#1504
12
#3009
13
#3158
0-
0"
#3218
0/
0$
#3418
00
0%
#25000
1!
0&
#26020
11
#50000
0!
1&
#51058
01
#52820
14
#53676
05
#54394
02
#55774
03
#56418
10
1%
#75000
1!
0&
#76020
11
#100000
0!
1&
#101058
01
#102820
04
#103752
15
#104324
12
#104966
17
#105654
06
#105829
13
#106238
00
0%
#108310
1/
1$
#125000
1!
0&
#126020
11
#150000
0!
1&
#151058
01
#152820
14
#153676
05
#154394
02
#155774
03
#156418
10
1%
#175000
1!
0&
#176020
11
#200000
0!
1&
#201058
01
#202820
04
#203752
15
#204324
12
#204966
07
#205705
16
#205829
13
#206238
00
0%
#206474
19
#206956
08
#208184
0/
0$
#225000
1!
0&
#226020
11
#250000
0!
1&
#251058
01
#252820
14
#253676
05
#254394
02
#255774
03
#256418
10
1%
#275000
1!
0&
#276020
11
#300000
0!
1&
#301058
01
#302820
04
#303752
15
#304324
12
#304966
17
#305654
06
#305829
13
#306238
00
0%
#306259
1:
#308310
1/
1$
#325000
1!
0&
#326020
11
#350000
0!
1&
#351058
01
#352820
14
#353676
05
#354394
02
#355774
03
#356418
10
1%
#375000
1!
0&
#376020
11
#400000
0!
1&
#401058
01
#402820
04
#403752
15
#404324
12
#404349
1;
#404831
0:
#404966
07
#405705
16
#405829
13
#406238
00
0%
#406474
09
#406936
18
#407616
1-
1"
#408184
0/
0$
#425000
1!
0&
#426020
11
#450000
0!
1&
#451058
01
#452820
14
#454394
02
#455774
03
#456418
10
1%
#475000
1!
0&
#476020
11
#500000
0!
1&
#501058
01
#502820
04
#504324
12
#504349
0;
#505829
13
#506238
00
0%
#507507
0-
0"
#525000
1!
0&
#526020
11
#550000
0!
1&
#551058
01
#552820
14
#553676
05
#554394
02
#555774
03
#556418
10
1%
#575000
1!
0&
#576020
11
#600000
0!
1&
#601058
01
#602820
04
#603752
15
#604324
12
#604966
17
#605654
06
#605829
13
#606238
00
0%
#608310
1/
1$
#625000
1!
0&
#626020
11
#650000
0!
1&
#651058
01
#652820
14
#653676
05
#654394
02
#655774
03
#656418
10
1%
#675000
1!
0&
#676020
11
#700000
0!
1&
#701058
01
#702820
04
#703752
15
#704324
12
#704966
07
#705705
16
#705829
13
#706238
00
0%
#706474
19
#706956
08
#708184
0/
0$
#725000
1!
0&
#726020
11
#750000
0!
1&
#751058
01
#752820
14
#753676
05
#754394
02
#755774
03
#756418
10
1%
#775000
1!
0&
#776020
11
#800000
0!
1&
#801058
01
#802820
04
#803752
15
#804324
12
#804966
17
#805654
06
#805829
13
#806238
00
0%
#806259
1:
#808310
1/
1$
#825000
1!
0&
#826020
11
#850000
0!
1&
#851058
01
#852820
14
#853676
05
#854394
02
#855774
03
#856418
10
1%
#875000
1!
0&
#876020
11
#900000
0!
1&
#901058
01
#902820
04
#903752
15
#904324
12
#904349
1;
#904831
0:
#904966
07
#905705
16
#905829
13
#906238
00
0%
#906474
09
#906936
18
#907616
1-
1"
#908184
0/
0$
#925000
1!
0&
#926020
11
#950000
0!
1&
#951058
01
#952820
14
#954394
02
#955774
03
#956418
10
1%
#975000
1!
0&
#976020
11
