Counter38/simulation/qsim/Counter38.msim.vcd
$comment
	File created using the following command:
		vcd file Counter38.msim.vcd -direction
$end
$date
	Tue May 13 14:47:05 2025
$end
$version
	ModelSim Version 10.1d
$end
$timescale
	1ps
$end
$scope module cnt10_38_vlg_vec_tst $end
$var reg 1 ! CLK_IN38 $end
$var wire 1 " q38 [3] $end
$var wire 1 # q38 [2] $end
$var wire 1 $ q38 [1] $end
$var wire 1 % q38 [0] $end
$var wire 1 & sampler $end
$scope module i1 $end
$var wire 1 ' gnd $end
$var wire 1 ( vcc $end
$var wire 1 ) unknown $end
$var tri1 1 * devclrn $end
$var tri1 1 + devpor $end
$var tri1 1 , devoe $end
$var wire 1 - q38[3]~output_o $end
$var wire 1 . q38[2]~output_o $end
$var wire 1 / q38[1]~output_o $end
$var wire 1 0 q38[0]~output_o $end
$var wire 1 1 CLK_IN38~input_o $end
$var wire 1 2 inst|7~0_combout $end
$var wire 1 3 inst|7~q $end
$var wire 1 4 inst|20~combout $end
$var wire 1 5 inst|6~0_combout $end
$var wire 1 6 inst|6~q $end
$var wire 1 7 inst|5~0_combout $end
$var wire 1 8 inst|5~q $end
$var wire 1 9 inst|3~0_combout $end
$var wire 1 : inst|3~q $end
$upscope $end
$upscope $end
$enddefinitions $end
#0
$dumpvars
0!
x%
x$
x#
x"
x&
0'
1(
x)
1*
1+
1,
x-
x.
x/
x0
01
12
03
x4
15
06
17
08
x9
0:
$end
#736
14
#1290
09
#3559
00
0%
#3582
0/
0$
#4250
0-
0"
#5557
0.
0#
#50000
1!
0&
#50990
11
#100000
0!
1&
#101028
01
#103390
13
#103872
02
#104033
04
#107089
10
1%
#150000
1!
0&
#150990
11
#200000
0!
1&
#201028
01
#203390
03
#203852
12
#204126
14
#206140
16
#206622
05
#206949
00
0%
#209847
1/
1$
#250000
1!
0&
#250990
11
#300000
0!
1&
#301028
01
#303390
13
#303872
02
#304033
04
#307089
10
1%
#350000
1!
0&
#350990
11
#400000
0!
1&
#401028
01
#403390
03
#403852
12
#404126
14
#406140
06
#406602
15
#406949
00
0%
#407508
18
#407990
07
#409722
0/
0$
#413103
1.
1#
#450000
1!
0&
#450990
11
#500000
0!
1&
#501028
01
#503390
13
#503872
02
#504033
04
#507089
10
1%
#550000
1!
0&
#550990
11
#600000
0!
1&
#601028
01
#603390
03
#603852
12
#604126
14
#606140
16
#606622
05
#606949
00
0%
#607784
19
#609847
1/
1$
#650000
1!
0&
#650990
11
#700000
0!
1&
#701028
01
#703390
13
#703872
02
#704033
04
#707089
10
1%
#750000
1!
0&
#750990
11
#800000
0!
1&
#801028
01
#803390
03
#803852
12
#804126
14
#804782
1:
#805264
09
#806140
06
#806602
15
#806949
00
0%
#807508
08
#807970
17
#809188
1-
1"
#809722
0/
0$
#813065
0.
0#
#850000
1!
0&
#850990
11
#900000
0!
1&
#901028
01
#903390
13
#903872
02
#907089
10
1%
#950000
1!
0&
#950990
11
#1000000
0!
1&
#1001028
01
#1003390
03
#1003852
12
#1004782
0:
#1006949
00
0%
#1009032
0-
0"
#1050000
1!
0&
#1050990
11
#1100000
0!
1&
#1101028
01
#1103390
13
#1103872
02
#1104033
04
#1107089
10
1%
#1150000
1!
0&
