E1/extraTask/Counter38/simulation/qsim/Counter38.msim.vcd
$comment
	File created using the following command:
		vcd file Counter38.msim.vcd -direction
$end
$date
	Tue May 13 15:32:55 2025
$end
$version
	ModelSim Version 10.1d
$end
$timescale
	1ps
$end
$scope module cnt10_38_vlg_vec_tst $end
$var reg 1 ! CLK_IN38 $end
$var wire 1 " q38 [2] $end
$var wire 1 # q38 [1] $end
$var wire 1 $ q38 [0] $end
$var wire 1 % sampler $end
$scope module i1 $end
$var wire 1 & gnd $end
$var wire 1 ' vcc $end
$var wire 1 ( unknown $end
$var tri1 1 ) devclrn $end
$var tri1 1 * devpor $end
$var tri1 1 + devoe $end
$var wire 1 , q38[2]~output_o $end
$var wire 1 - q38[1]~output_o $end
$var wire 1 . q38[0]~output_o $end
$var wire 1 / CLK_IN38~input_o $end
$var wire 1 0 inst|7~0_combout $end
$var wire 1 1 inst2~combout $end
$var wire 1 2 inst2~clkctrl_outclk $end
$var wire 1 3 inst|7~q $end
$var wire 1 4 inst|20~combout $end
$var wire 1 5 inst|6~0_combout $end
$var wire 1 6 inst|6~q $end
$var wire 1 7 inst|5~0_combout $end
$var wire 1 8 inst|5~q $end
$upscope $end
$upscope $end
$enddefinitions $end
#0
$dumpvars
0!
x$
x#
x"
x%
0&
1'
x(
1)
1*
1+
x,
x-
x.
0/
10
x1
x2
03
x4
15
06
17
08
$end
#543
01
#572
14
#1925
02
#3396
0.
0$
#3963
0-
0#
#4004
0,
0"
#50000
1!
0%
#50969
1/
#100000
0!
1%
#101014
0/
#102852
13
#103331
04
#103334
00
#106429
1.
1$
#150000
1!
0%
#150969
1/
#200000
0!
1%
#201014
0/
#202852
03
#203314
10
#203424
14
#204638
16
#205120
05
#206248
0.
0$
#208870
1-
1#
#250000
1!
0%
#250969
1/
#300000
0!
1%
#301014
0/
#302852
13
#303331
04
#303334
00
#306429
1.
1$
#350000
1!
0%
#350969
1/
#400000
0!
1%
#401014
0/
#402852
03
#403314
10
#403424
14
#404638
06
#405100
15
#406248
0.
0$
#407034
18
#407516
07
#408601
0-
0#
#411297
1,
1"
#450000
1!
0%
#450969
1/
#500000
0!
1%
#501014
0/
#502852
13
#503331
04
#503334
00
#506429
1.
1$
#550000
1!
0%
#550969
1/
#600000
0!
1%
#601014
0/
#602852
03
#603314
10
#603424
14
#604638
16
#605120
05
#606248
0.
0$
#606508
11
#608053
12
#608870
1-
1#
#610161
08
#610169
06
#610623
17
#610631
15
#610704
01
#612086
02
#614132
0-
0#
#614165
0,
0"
#650000
1!
0%
#650969
1/
#700000
0!
1%
#701014
0/
#702852
13
#703331
04
#703334
00
#706429
1.
1$
#750000
1!
0%
#750969
1/
#800000
0!
1%
#801014
0/
#802852
03
#803314
10
#803424
14
#804638
16
#805120
05
#806248
0.
0$
#808870
1-
1#
#850000
1!
0%
#850969
1/
#900000
0!
1%
#901014
0/
#902852
13
#903331
04
#903334
00
#906429
1.
1$
#950000
1!
0%
#950969
1/
#999000
0!
1%
#1000014
0/
#1001852
03
#1002314
10
#1002424
14
#1003638
06
#1004100
15
#1005248
0.
0$
#1006034
18
#1006516
07
#1007601
0-
0#
#1010297
1,
1"
